^D:\UNIBERTSITATEA\LEHENENGO MAILA 2\POPBL\KODEA\SDLEXAMPLESVCWS\SIMPLESDLWRAPPER\EBENTOAK.C
/c /I"D:\UNIBERTSITATEA\LEHENENGO MAILA 2\POPBL\KODEA\SDLEXAMPLESVCWS\02SIMPLEGAME\\" /I"D:\UNIBERTSITATEA\LEHENENGO MAILA 2\POPBL\KODEA\SDLEXAMPLESVCWS\02SIMPLEGAME\\GAME02" /I"D:\UNIBERTSITATEA\LEHENENGO MAILA 2\POPBL\KODEA\SDLEXAMPLESVCWS\\SIMPLESDLWRAPPER" /I"D:\UNIBERTSITATEA\LEHENENGO MAILA 2\POPBL\KODEA\SDLEXAMPLESVCWS\\SDL2\INCLUDE" /I"D:\UNIBERTSITATEA\LEHENENGO MAILA 2\POPBL\KODEA\SDLEXAMPLESVCWS\\SDL2IMAGE\INCLUDE" /I"D:\UNIBERTSITATEA\LEHENENGO MAILA 2\POPBL\KODEA\SDLEXAMPLESVCWS\\SDL2MIXER\INCLUDE" /I"D:\UNIBERTSITATEA\LEHENENGO MAILA 2\POPBL\KODEA\SDLEXAMPLESVCWS\\SDL2TTF\INCLUDE" /ZI /JMC /nologo /W3 /WX- /diagnostics:column /Od /Oy- /D WIN32 /D _DEBUG /D _CONSOLE /D _UNICODE /D UNICODE /Gm- /EHsc /RTC1 /MDd /GS /fp:precise /Zc:wchar_t /Zc:forScope /Zc:inline /Fo"DEBUG\\" /Fd"DEBUG\VC142.PDB" /Gd /TC /analyze- /FC D:\UNIBERTSITATEA\LEHENENGO MAILA 2\POPBL\KODEA\SDLEXAMPLESVCWS\SIMPLESDLWRAPPER\EBENTOAK.C
^D:\UNIBERTSITATEA\LEHENENGO MAILA 2\POPBL\KODEA\SDLEXAMPLESVCWS\SIMPLESDLWRAPPER\GRAPHICS.C
/c /I"D:\UNIBERTSITATEA\LEHENENGO MAILA 2\POPBL\KODEA\SDLEXAMPLESVCWS\02SIMPLEGAME\\" /I"D:\UNIBERTSITATEA\LEHENENGO MAILA 2\POPBL\KODEA\SDLEXAMPLESVCWS\02SIMPLEGAME\\GAME02" /I"D:\UNIBERTSITATEA\LEHENENGO MAILA 2\POPBL\KODEA\SDLEXAMPLESVCWS\\SIMPLESDLWRAPPER" /I"D:\UNIBERTSITATEA\LEHENENGO MAILA 2\POPBL\KODEA\SDLEXAMPLESVCWS\\SDL2\INCLUDE" /I"D:\UNIBERTSITATEA\LEHENENGO MAILA 2\POPBL\KODEA\SDLEXAMPLESVCWS\\SDL2IMAGE\INCLUDE" /I"D:\UNIBERTSITATEA\LEHENENGO MAILA 2\POPBL\KODEA\SDLEXAMPLESVCWS\\SDL2MIXER\INCLUDE" /I"D:\UNIBERTSITATEA\LEHENENGO MAILA 2\POPBL\KODEA\SDLEXAMPLESVCWS\\SDL2TTF\INCLUDE" /ZI /JMC /nologo /W3 /WX- /diagnostics:column /Od /Oy- /D WIN32 /D _DEBUG /D _CONSOLE /D _UNICODE /D UNICODE /Gm- /EHsc /RTC1 /MDd /GS /fp:precise /Zc:wchar_t /Zc:forScope /Zc:inline /Fo"DEBUG\\" /Fd"DEBUG\VC142.PDB" /Gd /TC /analyze- /FC D:\UNIBERTSITATEA\LEHENENGO MAILA 2\POPBL\KODEA\SDLEXAMPLESVCWS\SIMPLESDLWRAPPER\GRAPHICS.C
^D:\UNIBERTSITATEA\LEHENENGO MAILA 2\POPBL\KODEA\SDLEXAMPLESVCWS\SIMPLESDLWRAPPER\IMAGEN.C
/c /I"D:\UNIBERTSITATEA\LEHENENGO MAILA 2\POPBL\KODEA\SDLEXAMPLESVCWS\02SIMPLEGAME\\" /I"D:\UNIBERTSITATEA\LEHENENGO MAILA 2\POPBL\KODEA\SDLEXAMPLESVCWS\02SIMPLEGAME\\GAME02" /I"D:\UNIBERTSITATEA\LEHENENGO MAILA 2\POPBL\KODEA\SDLEXAMPLESVCWS\\SIMPLESDLWRAPPER" /I"D:\UNIBERTSITATEA\LEHENENGO MAILA 2\POPBL\KODEA\SDLEXAMPLESVCWS\\SDL2\INCLUDE" /I"D:\UNIBERTSITATEA\LEHENENGO MAILA 2\POPBL\KODEA\SDLEXAMPLESVCWS\\SDL2IMAGE\INCLUDE" /I"D:\UNIBERTSITATEA\LEHENENGO MAILA 2\POPBL\KODEA\SDLEXAMPLESVCWS\\SDL2MIXER\INCLUDE" /I"D:\UNIBERTSITATEA\LEHENENGO MAILA 2\POPBL\KODEA\SDLEXAMPLESVCWS\\SDL2TTF\INCLUDE" /ZI /JMC /nologo /W3 /WX- /diagnostics:column /Od /Oy- /D WIN32 /D _DEBUG /D _CONSOLE /D _UNICODE /D UNICODE /Gm- /EHsc /RTC1 /MDd /GS /fp:precise /Zc:wchar_t /Zc:forScope /Zc:inline /Fo"DEBUG\\" /Fd"DEBUG\VC142.PDB" /Gd /TC /analyze- /FC D:\UNIBERTSITATEA\LEHENENGO MAILA 2\POPBL\KODEA\SDLEXAMPLESVCWS\SIMPLESDLWRAPPER\IMAGEN.C
^D:\UNIBERTSITATEA\LEHENENGO MAILA 2\POPBL\KODEA\SDLEXAMPLESVCWS\SIMPLESDLWRAPPER\SOINUA.C
/c /I"D:\UNIBERTSITATEA\LEHENENGO MAILA 2\POPBL\KODEA\SDLEXAMPLESVCWS\02SIMPLEGAME\\" /I"D:\UNIBERTSITATEA\LEHENENGO MAILA 2\POPBL\KODEA\SDLEXAMPLESVCWS\02SIMPLEGAME\\GAME02" /I"D:\UNIBERTSITATEA\LEHENENGO MAILA 2\POPBL\KODEA\SDLEXAMPLESVCWS\\SIMPLESDLWRAPPER" /I"D:\UNIBERTSITATEA\LEHENENGO MAILA 2\POPBL\KODEA\SDLEXAMPLESVCWS\\SDL2\INCLUDE" /I"D:\UNIBERTSITATEA\LEHENENGO MAILA 2\POPBL\KODEA\SDLEXAMPLESVCWS\\SDL2IMAGE\INCLUDE" /I"D:\UNIBERTSITATEA\LEHENENGO MAILA 2\POPBL\KODEA\SDLEXAMPLESVCWS\\SDL2MIXER\INCLUDE" /I"D:\UNIBERTSITATEA\LEHENENGO MAILA 2\POPBL\KODEA\SDLEXAMPLESVCWS\\SDL2TTF\INCLUDE" /ZI /JMC /nologo /W3 /WX- /diagnostics:column /Od /Oy- /D WIN32 /D _DEBUG /D _CONSOLE /D _UNICODE /D UNICODE /Gm- /EHsc /RTC1 /MDd /GS /fp:precise /Zc:wchar_t /Zc:forScope /Zc:inline /Fo"DEBUG\\" /Fd"DEBUG\VC142.PDB" /Gd /TC /analyze- /FC D:\UNIBERTSITATEA\LEHENENGO MAILA 2\POPBL\KODEA\SDLEXAMPLESVCWS\SIMPLESDLWRAPPER\SOINUA.C
^D:\UNIBERTSITATEA\LEHENENGO MAILA 2\POPBL\KODEA\SDLEXAMPLESVCWS\SIMPLESDLWRAPPER\TEXT.C
/c /I"D:\UNIBERTSITATEA\LEHENENGO MAILA 2\POPBL\KODEA\SDLEXAMPLESVCWS\02SIMPLEGAME\\" /I"D:\UNIBERTSITATEA\LEHENENGO MAILA 2\POPBL\KODEA\SDLEXAMPLESVCWS\02SIMPLEGAME\\GAME02" /I"D:\UNIBERTSITATEA\LEHENENGO MAILA 2\POPBL\KODEA\SDLEXAMPLESVCWS\\SIMPLESDLWRAPPER" /I"D:\UNIBERTSITATEA\LEHENENGO MAILA 2\POPBL\KODEA\SDLEXAMPLESVCWS\\SDL2\INCLUDE" /I"D:\UNIBERTSITATEA\LEHENENGO MAILA 2\POPBL\KODEA\SDLEXAMPLESVCWS\\SDL2IMAGE\INCLUDE" /I"D:\UNIBERTSITATEA\LEHENENGO MAILA 2\POPBL\KODEA\SDLEXAMPLESVCWS\\SDL2MIXER\INCLUDE" /I"D:\UNIBERTSITATEA\LEHENENGO MAILA 2\POPBL\KODEA\SDLEXAMPLESVCWS\\SDL2TTF\INCLUDE" /ZI /JMC /nologo /W3 /WX- /diagnostics:column /Od /Oy- /D WIN32 /D _DEBUG /D _CONSOLE /D _UNICODE /D UNICODE /Gm- /EHsc /RTC1 /MDd /GS /fp:precise /Zc:wchar_t /Zc:forScope /Zc:inline /Fo"DEBUG\\" /Fd"DEBUG\VC142.PDB" /Gd /TC /analyze- /FC D:\UNIBERTSITATEA\LEHENENGO MAILA 2\POPBL\KODEA\SDLEXAMPLESVCWS\SIMPLESDLWRAPPER\TEXT.C
^D:\UNIBERTSITATEA\LEHENENGO MAILA 2\POPBL\KODEA\SDLEXAMPLESVCWS\02SIMPLEGAME\02SIMPLEGAMEMAIN.C
/c /I"D:\UNIBERTSITATEA\LEHENENGO MAILA 2\POPBL\KODEA\SDLEXAMPLESVCWS\02SIMPLEGAME\\" /I"D:\UNIBERTSITATEA\LEHENENGO MAILA 2\POPBL\KODEA\SDLEXAMPLESVCWS\02SIMPLEGAME\\GAME02" /I"D:\UNIBERTSITATEA\LEHENENGO MAILA 2\POPBL\KODEA\SDLEXAMPLESVCWS\\SIMPLESDLWRAPPER" /I"D:\UNIBERTSITATEA\LEHENENGO MAILA 2\POPBL\KODEA\SDLEXAMPLESVCWS\\SDL2\INCLUDE" /I"D:\UNIBERTSITATEA\LEHENENGO MAILA 2\POPBL\KODEA\SDLEXAMPLESVCWS\\SDL2IMAGE\INCLUDE" /I"D:\UNIBERTSITATEA\LEHENENGO MAILA 2\POPBL\KODEA\SDLEXAMPLESVCWS\\SDL2MIXER\INCLUDE" /I"D:\UNIBERTSITATEA\LEHENENGO MAILA 2\POPBL\KODEA\SDLEXAMPLESVCWS\\SDL2TTF\INCLUDE" /ZI /JMC /nologo /W3 /WX- /diagnostics:column /Od /Oy- /D WIN32 /D _DEBUG /D _CONSOLE /D _UNICODE /D UNICODE /Gm- /EHsc /RTC1 /MDd /GS /fp:precise /Zc:wchar_t /Zc:forScope /Zc:inline /Fo"DEBUG\\" /Fd"DEBUG\VC142.PDB" /Gd /TC /analyze- /FC D:\UNIBERTSITATEA\LEHENENGO MAILA 2\POPBL\KODEA\SDLEXAMPLESVCWS\02SIMPLEGAME\02SIMPLEGAMEMAIN.C
^D:\UNIBERTSITATEA\LEHENENGO MAILA 2\POPBL\KODEA\SDLEXAMPLESVCWS\02SIMPLEGAME\AMAIERA.C
/c /I"D:\UNIBERTSITATEA\LEHENENGO MAILA 2\POPBL\KODEA\SDLEXAMPLESVCWS\02SIMPLEGAME\\" /I"D:\UNIBERTSITATEA\LEHENENGO MAILA 2\POPBL\KODEA\SDLEXAMPLESVCWS\02SIMPLEGAME\\GAME02" /I"D:\UNIBERTSITATEA\LEHENENGO MAILA 2\POPBL\KODEA\SDLEXAMPLESVCWS\\SIMPLESDLWRAPPER" /I"D:\UNIBERTSITATEA\LEHENENGO MAILA 2\POPBL\KODEA\SDLEXAMPLESVCWS\\SDL2\INCLUDE" /I"D:\UNIBERTSITATEA\LEHENENGO MAILA 2\POPBL\KODEA\SDLEXAMPLESVCWS\\SDL2IMAGE\INCLUDE" /I"D:\UNIBERTSITATEA\LEHENENGO MAILA 2\POPBL\KODEA\SDLEXAMPLESVCWS\\SDL2MIXER\INCLUDE" /I"D:\UNIBERTSITATEA\LEHENENGO MAILA 2\POPBL\KODEA\SDLEXAMPLESVCWS\\SDL2TTF\INCLUDE" /ZI /JMC /nologo /W3 /WX- /diagnostics:column /Od /Oy- /D WIN32 /D _DEBUG /D _CONSOLE /D _UNICODE /D UNICODE /Gm- /EHsc /RTC1 /MDd /GS /fp:precise /Zc:wchar_t /Zc:forScope /Zc:inline /Fo"DEBUG\\" /Fd"DEBUG\VC142.PDB" /Gd /TC /analyze- /FC D:\UNIBERTSITATEA\LEHENENGO MAILA 2\POPBL\KODEA\SDLEXAMPLESVCWS\02SIMPLEGAME\AMAIERA.C
^D:\UNIBERTSITATEA\LEHENENGO MAILA 2\POPBL\KODEA\SDLEXAMPLESVCWS\02SIMPLEGAME\BOTOIAK.C
/c /I"D:\UNIBERTSITATEA\LEHENENGO MAILA 2\POPBL\KODEA\SDLEXAMPLESVCWS\02SIMPLEGAME\\" /I"D:\UNIBERTSITATEA\LEHENENGO MAILA 2\POPBL\KODEA\SDLEXAMPLESVCWS\02SIMPLEGAME\\GAME02" /I"D:\UNIBERTSITATEA\LEHENENGO MAILA 2\POPBL\KODEA\SDLEXAMPLESVCWS\\SIMPLESDLWRAPPER" /I"D:\UNIBERTSITATEA\LEHENENGO MAILA 2\POPBL\KODEA\SDLEXAMPLESVCWS\\SDL2\INCLUDE" /I"D:\UNIBERTSITATEA\LEHENENGO MAILA 2\POPBL\KODEA\SDLEXAMPLESVCWS\\SDL2IMAGE\INCLUDE" /I"D:\UNIBERTSITATEA\LEHENENGO MAILA 2\POPBL\KODEA\SDLEXAMPLESVCWS\\SDL2MIXER\INCLUDE" /I"D:\UNIBERTSITATEA\LEHENENGO MAILA 2\POPBL\KODEA\SDLEXAMPLESVCWS\\SDL2TTF\INCLUDE" /ZI /JMC /nologo /W3 /WX- /diagnostics:column /Od /Oy- /D WIN32 /D _DEBUG /D _CONSOLE /D _UNICODE /D UNICODE /Gm- /EHsc /RTC1 /MDd /GS /fp:precise /Zc:wchar_t /Zc:forScope /Zc:inline /Fo"DEBUG\\" /Fd"DEBUG\VC142.PDB" /Gd /TC /analyze- /FC D:\UNIBERTSITATEA\LEHENENGO MAILA 2\POPBL\KODEA\SDLEXAMPLESVCWS\02SIMPLEGAME\BOTOIAK.C
^D:\UNIBERTSITATEA\LEHENENGO MAILA 2\POPBL\KODEA\SDLEXAMPLESVCWS\02SIMPLEGAME\GAME02\GAME02.C
/c /I"D:\UNIBERTSITATEA\LEHENENGO MAILA 2\POPBL\KODEA\SDLEXAMPLESVCWS\02SIMPLEGAME\\" /I"D:\UNIBERTSITATEA\LEHENENGO MAILA 2\POPBL\KODEA\SDLEXAMPLESVCWS\02SIMPLEGAME\\GAME02" /I"D:\UNIBERTSITATEA\LEHENENGO MAILA 2\POPBL\KODEA\SDLEXAMPLESVCWS\\SIMPLESDLWRAPPER" /I"D:\UNIBERTSITATEA\LEHENENGO MAILA 2\POPBL\KODEA\SDLEXAMPLESVCWS\\SDL2\INCLUDE" /I"D:\UNIBERTSITATEA\LEHENENGO MAILA 2\POPBL\KODEA\SDLEXAMPLESVCWS\\SDL2IMAGE\INCLUDE" /I"D:\UNIBERTSITATEA\LEHENENGO MAILA 2\POPBL\KODEA\SDLEXAMPLESVCWS\\SDL2MIXER\INCLUDE" /I"D:\UNIBERTSITATEA\LEHENENGO MAILA 2\POPBL\KODEA\SDLEXAMPLESVCWS\\SDL2TTF\INCLUDE" /ZI /JMC /nologo /W3 /WX- /diagnostics:column /Od /Oy- /D WIN32 /D _DEBUG /D _CONSOLE /D _UNICODE /D UNICODE /Gm- /EHsc /RTC1 /MDd /GS /fp:precise /Zc:wchar_t /Zc:forScope /Zc:inline /Fo"DEBUG\\" /Fd"DEBUG\VC142.PDB" /Gd /TC /analyze- /FC D:\UNIBERTSITATEA\LEHENENGO MAILA 2\POPBL\KODEA\SDLEXAMPLESVCWS\02SIMPLEGAME\GAME02\GAME02.C
^D:\UNIBERTSITATEA\LEHENENGO MAILA 2\POPBL\KODEA\SDLEXAMPLESVCWS\02SIMPLEGAME\JOKALARIAHAUTATU.C
/c /I"D:\UNIBERTSITATEA\LEHENENGO MAILA 2\POPBL\KODEA\SDLEXAMPLESVCWS\02SIMPLEGAME\\" /I"D:\UNIBERTSITATEA\LEHENENGO MAILA 2\POPBL\KODEA\SDLEXAMPLESVCWS\02SIMPLEGAME\\GAME02" /I"D:\UNIBERTSITATEA\LEHENENGO MAILA 2\POPBL\KODEA\SDLEXAMPLESVCWS\\SIMPLESDLWRAPPER" /I"D:\UNIBERTSITATEA\LEHENENGO MAILA 2\POPBL\KODEA\SDLEXAMPLESVCWS\\SDL2\INCLUDE" /I"D:\UNIBERTSITATEA\LEHENENGO MAILA 2\POPBL\KODEA\SDLEXAMPLESVCWS\\SDL2IMAGE\INCLUDE" /I"D:\UNIBERTSITATEA\LEHENENGO MAILA 2\POPBL\KODEA\SDLEXAMPLESVCWS\\SDL2MIXER\INCLUDE" /I"D:\UNIBERTSITATEA\LEHENENGO MAILA 2\POPBL\KODEA\SDLEXAMPLESVCWS\\SDL2TTF\INCLUDE" /ZI /JMC /nologo /W3 /WX- /diagnostics:column /Od /Oy- /D WIN32 /D _DEBUG /D _CONSOLE /D _UNICODE /D UNICODE /Gm- /EHsc /RTC1 /MDd /GS /fp:precise /Zc:wchar_t /Zc:forScope /Zc:inline /Fo"DEBUG\\" /Fd"DEBUG\VC142.PDB" /Gd /TC /analyze- /FC D:\UNIBERTSITATEA\LEHENENGO MAILA 2\POPBL\KODEA\SDLEXAMPLESVCWS\02SIMPLEGAME\JOKALARIAHAUTATU.C
^D:\UNIBERTSITATEA\LEHENENGO MAILA 2\POPBL\KODEA\SDLEXAMPLESVCWS\02SIMPLEGAME\MENUA.C
/c /I"D:\UNIBERTSITATEA\LEHENENGO MAILA 2\POPBL\KODEA\SDLEXAMPLESVCWS\02SIMPLEGAME\\" /I"D:\UNIBERTSITATEA\LEHENENGO MAILA 2\POPBL\KODEA\SDLEXAMPLESVCWS\02SIMPLEGAME\\GAME02" /I"D:\UNIBERTSITATEA\LEHENENGO MAILA 2\POPBL\KODEA\SDLEXAMPLESVCWS\\SIMPLESDLWRAPPER" /I"D:\UNIBERTSITATEA\LEHENENGO MAILA 2\POPBL\KODEA\SDLEXAMPLESVCWS\\SDL2\INCLUDE" /I"D:\UNIBERTSITATEA\LEHENENGO MAILA 2\POPBL\KODEA\SDLEXAMPLESVCWS\\SDL2IMAGE\INCLUDE" /I"D:\UNIBERTSITATEA\LEHENENGO MAILA 2\POPBL\KODEA\SDLEXAMPLESVCWS\\SDL2MIXER\INCLUDE" /I"D:\UNIBERTSITATEA\LEHENENGO MAILA 2\POPBL\KODEA\SDLEXAMPLESVCWS\\SDL2TTF\INCLUDE" /ZI /JMC /nologo /W3 /WX- /diagnostics:column /Od /Oy- /D WIN32 /D _DEBUG /D _CONSOLE /D _UNICODE /D UNICODE /Gm- /EHsc /RTC1 /MDd /GS /fp:precise /Zc:wchar_t /Zc:forScope /Zc:inline /Fo"DEBUG\\" /Fd"DEBUG\VC142.PDB" /Gd /TC /analyze- /FC D:\UNIBERTSITATEA\LEHENENGO MAILA 2\POPBL\KODEA\SDLEXAMPLESVCWS\02SIMPLEGAME\MENUA.C
^D:\UNIBERTSITATEA\LEHENENGO MAILA 2\POPBL\KODEA\SDLEXAMPLESVCWS\02SIMPLEGAME\MONOPOLIA.C
/c /I"D:\UNIBERTSITATEA\LEHENENGO MAILA 2\POPBL\KODEA\SDLEXAMPLESVCWS\02SIMPLEGAME\\" /I"D:\UNIBERTSITATEA\LEHENENGO MAILA 2\POPBL\KODEA\SDLEXAMPLESVCWS\02SIMPLEGAME\\GAME02" /I"D:\UNIBERTSITATEA\LEHENENGO MAILA 2\POPBL\KODEA\SDLEXAMPLESVCWS\\SIMPLESDLWRAPPER" /I"D:\UNIBERTSITATEA\LEHENENGO MAILA 2\POPBL\KODEA\SDLEXAMPLESVCWS\\SDL2\INCLUDE" /I"D:\UNIBERTSITATEA\LEHENENGO MAILA 2\POPBL\KODEA\SDLEXAMPLESVCWS\\SDL2IMAGE\INCLUDE" /I"D:\UNIBERTSITATEA\LEHENENGO MAILA 2\POPBL\KODEA\SDLEXAMPLESVCWS\\SDL2MIXER\INCLUDE" /I"D:\UNIBERTSITATEA\LEHENENGO MAILA 2\POPBL\KODEA\SDLEXAMPLESVCWS\\SDL2TTF\INCLUDE" /ZI /JMC /nologo /W3 /WX- /diagnostics:column /Od /Oy- /D WIN32 /D _DEBUG /D _CONSOLE /D _UNICODE /D UNICODE /Gm- /EHsc /RTC1 /MDd /GS /fp:precise /Zc:wchar_t /Zc:forScope /Zc:inline /Fo"DEBUG\\" /Fd"DEBUG\VC142.PDB" /Gd /TC /analyze- /FC D:\UNIBERTSITATEA\LEHENENGO MAILA 2\POPBL\KODEA\SDLEXAMPLESVCWS\02SIMPLEGAME\MONOPOLIA.C
